s4noc-chisel/Main.vcd
$timescale 1ps $end
$scope module Main $end
$var wire 1 ! clk $end
$var wire 1 " reset $end
$var wire 1 , io_itype $end
$var wire 1 3 io_mem_op $end
$var wire 1 K io_useImm $end
$var wire 1 u io_busy $end
$var wire 1 v io_ena $end
$var wire 2 '" io_mem_siz $end
$var wire 4 5# io_func $end
$var wire 5 K# io_rs $end
$var wire 5 O# io_rt $end
$var wire 5 W# io_rd $end
$var wire 32 l# io_imm $end
$scope module issue $end
$var wire 1 - io_itype $end
$var wire 1 / io_LSQ_io_busy $end
$var wire 1 0 io_LSQ_io_sel $end
$var wire 1 4 io_mem_op $end
$var wire 1 5 io_LSQ_io_mem_op $end
$var wire 1 ? io_RS_io_2_busy $end
$var wire 1 A io_RS_io_1_busy $end
$var wire 1 C io_RS_io_0_busy $end
$var wire 1 E io_RS_io_3_busy $end
$var wire 1 F io_RS_io_3_sel $end
$var wire 1 L io_useImm $end
$var wire 1 O io_RS_io_2_sel $end
$var wire 1 V io_RS_io_1_sel $end
$var wire 1 ] io_RS_io_0_sel $end
$var wire 1 o io_RS_io_3_mem_op $end
$var wire 1 p io_RS_io_2_mem_op $end
$var wire 1 q io_RS_io_1_mem_op $end
$var wire 1 r io_RS_io_0_mem_op $end
$var wire 1 s io_regstat_io_valid $end
$var wire 1 t io_busy $end
$var wire 2 #" io_RS_io_3_mem_siz $end
$var wire 2 $" io_RS_io_2_mem_siz $end
$var wire 2 %" io_RS_io_1_mem_siz $end
$var wire 2 &" io_RS_io_0_mem_siz $end
$var wire 3 /" io_regstat_io_tag_rs $end
$var wire 3 0" io_LSQ_io_tag_rs $end
$var wire 3 6" io_regstat_io_tag_rt $end
$var wire 3 7" io_LSQ_io_tag_rt $end
$var wire 3 A" io_RS_io_3_tag_rs $end
$var wire 3 C" io_RS_io_3_tag_rt $end
$var wire 3 G" io_RS_io_2_tag_rs $end
$var wire 3 I" io_RS_io_2_tag_rt $end
$var wire 3 M" io_RS_io_1_tag_rs $end
$var wire 3 O" io_RS_io_1_tag_rt $end
$var wire 3 S" io_RS_io_0_tag_rs $end
$var wire 3 U" io_RS_io_0_tag_rt $end
$var wire 3 X" io_LSQ_io_rs_id $end
$var wire 3 Z" io_RS_io_0_rs_id $end
$var wire 3 \" io_RS_io_1_rs_id $end
$var wire 3 ^" io_RS_io_2_rs_id $end
$var wire 3 `" io_RS_io_3_rs_id $end
$var wire 3 a" io_regstat_io_tag_rd $end
$var wire 4 6# io_func $end
$var wire 4 7# io_RS_io_3_func $end
$var wire 4 <# io_RS_io_2_func $end
$var wire 4 A# io_RS_io_1_func $end
$var wire 4 F# io_RS_io_0_func $end
$var wire 4 J# io_LSQ_io_func $end
$var wire 5 L# io_rs $end
$var wire 5 M# io_regstat_io_rs $end
$var wire 5 P# io_rt $end
$var wire 5 Q# io_regstat_io_rt $end
$var wire 5 S# io_RF_io_rs $end
$var wire 5 U# io_RF_io_rt $end
$var wire 5 X# io_rd $end
$var wire 5 Y# io_regstat_io_rd $end
$var wire 32 d# io_RF_io_val_rs $end
$var wire 32 e# io_RS_io_3_val_rs $end
$var wire 32 k# io_RF_io_val_rt $end
$var wire 32 m# io_imm $end
$var wire 32 n# io_RS_io_3_val_rt $end
$var wire 32 r# io_RS_io_2_val_rs $end
$var wire 32 w# io_RS_io_2_val_rt $end
$var wire 32 {# io_RS_io_1_val_rs $end
$var wire 32 "$ io_RS_io_1_val_rt $end
$var wire 32 &$ io_RS_io_0_val_rs $end
$var wire 32 +$ io_RS_io_0_val_rt $end
$upscope $end
$scope module cdb $end
$var wire 1 $ io_LSQ_io_rtw $end
$var wire 1 % io_LSQ_io_ack $end
$var wire 1 * io_regstat_io_valid $end
$var wire 1 I io_RS_io_3_rtw $end
$var wire 1 M io_RS_io_3_ack $end
$var wire 1 R io_RS_io_2_rtw $end
$var wire 1 T io_RS_io_2_ack $end
$var wire 1 Y io_RS_io_1_rtw $end
$var wire 1 [ io_RS_io_1_ack $end
$var wire 1 ` io_RS_io_0_rtw $end
$var wire 1 b io_RS_io_0_ack $end
$var wire 1 e io_RS_io_4_valid $end
$var wire 1 f io_RS_io_4_rtw $end
$var wire 1 g io_RS_io_4_ack $end
$var wire 1 h io_RS_io_3_valid $end
$var wire 1 i io_RS_io_2_valid $end
$var wire 1 j io_RS_io_1_valid $end
$var wire 1 k io_RS_io_0_valid $end
$var wire 1 l reset $end
$var wire 1 m reg_valid $end
$var wire 1 n io_LSQ_io_valid $end
$var wire 3 ," io_regstat_io_tag $end
$var wire 3 2" io_LSQ_io_tag_in $end
$var wire 3 ?" io_RS_io_3_tag_in $end
$var wire 3 E" io_RS_io_2_tag_in $end
$var wire 3 K" io_RS_io_1_tag_in $end
$var wire 3 Q" io_RS_io_0_tag_in $end
$var wire 3 %# io_RS_io_4_tag_in $end
$var wire 3 '# io_RS_io_0_tag_out $end
$var wire 3 )# io_LSQ_io_tag_out $end
$var wire 3 +# io_RS_io_1_tag_out $end
$var wire 3 -# io_RS_io_2_tag_out $end
$var wire 3 /# io_RS_io_3_tag_out $end
$var wire 3 0# io_RS_io_4_tag_out $end
$var wire 4 I# reg_tag $end
$var wire 5 [# dff $end
$var wire 32 ]# io_regstat_io_result $end
$var wire 32 g# io_RS_io_3_result_in $end
$var wire 32 t# io_RS_io_2_result_in $end
$var wire 32 }# io_RS_io_1_result_in $end
$var wire 32 ($ io_RS_io_0_result_in $end
$var wire 32 O$ io_RS_io_4_result_in $end
$var wire 32 Q$ io_RS_io_0_result_out $end
$var wire 32 S$ io_LSQ_io_result_out $end
$var wire 32 U$ io_RS_io_1_result_out $end
$var wire 32 W$ io_RS_io_2_result_out $end
$var wire 32 Y$ io_RS_io_3_result_out $end
$var wire 32 Z$ io_RS_io_4_result_out $end
$var wire 32 [$ reg_result $end
$upscope $end
$scope module regStatus $end
$var wire 1 + io_CDB_io_valid $end
$var wire 1 < io_RF_io_rd_en $end
$var wire 1 d reset $end
$var wire 3 -" io_CDB_io_tag $end
$var wire 3 ." io_issue_io_tag_rs $end
$var wire 3 5" io_issue_io_tag_rt $end
$var wire 3 b" io_issue_io_tag_rd $end
$var wire 3 c" reg_stat_31 $end
$var wire 3 d" reg_stat_30 $end
$var wire 3 e" reg_stat_29 $end
$var wire 3 f" reg_stat_28 $end
$var wire 3 g" reg_stat_27 $end
$var wire 3 h" reg_stat_26 $end
$var wire 3 i" reg_stat_25 $end
$var wire 3 j" reg_stat_24 $end
$var wire 3 k" reg_stat_23 $end
$var wire 3 l" reg_stat_22 $end
$var wire 3 m" reg_stat_21 $end
$var wire 3 n" reg_stat_20 $end
$var wire 3 o" reg_stat_19 $end
$var wire 3 p" reg_stat_18 $end
$var wire 3 q" reg_stat_17 $end
$var wire 3 r" reg_stat_16 $end
$var wire 3 s" reg_stat_15 $end
$var wire 3 t" reg_stat_14 $end
$var wire 3 u" reg_stat_13 $end
$var wire 3 v" reg_stat_12 $end
$var wire 3 w" reg_stat_11 $end
$var wire 3 x" reg_stat_10 $end
$var wire 3 y" reg_stat_9 $end
$var wire 3 z" reg_stat_8 $end
$var wire 3 {" reg_stat_7 $end
$var wire 3 |" reg_stat_6 $end
$var wire 3 }" reg_stat_5 $end
$var wire 3 ~" reg_stat_4 $end
$var wire 3 !# reg_stat_3 $end
$var wire 3 "# reg_stat_2 $end
$var wire 3 ## reg_stat_1 $end
$var wire 3 $# reg_stat_0 $end
$var wire 5 N# io_issue_io_rs $end
$var wire 5 R# io_issue_io_rt $end
$var wire 5 Z# io_issue_io_rd $end
$var wire 32 ^# io_CDB_io_result $end
$var wire 32 _# io_RF_io_result $end
$var wire 32 a# io_RF_io_rd_addr $end
$upscope $end
$scope module regFile $end
$var wire 1 = io_regstat_io_rd_en $end
$var wire 5 T# io_issue_io_rs $end
$var wire 5 V# io_issue_io_rt $end
$var wire 32 `# io_regstat_io_result $end
$var wire 32 b# io_regstat_io_rd_addr $end
$var wire 32 c# io_issue_io_val_rs $end
$var wire 32 j# io_issue_io_val_rt $end
$var wire 32 /$ rf_31 $end
$var wire 32 0$ rf_30 $end
$var wire 32 1$ rf_29 $end
$var wire 32 2$ rf_28 $end
$var wire 32 3$ rf_27 $end
$var wire 32 4$ rf_26 $end
$var wire 32 5$ rf_25 $end
$var wire 32 6$ rf_24 $end
$var wire 32 7$ rf_23 $end
$var wire 32 8$ rf_22 $end
$var wire 32 9$ rf_21 $end
$var wire 32 :$ rf_20 $end
$var wire 32 ;$ rf_19 $end
$var wire 32 <$ rf_18 $end
$var wire 32 =$ rf_17 $end
$var wire 32 >$ rf_16 $end
$var wire 32 ?$ rf_15 $end
$var wire 32 @$ rf_14 $end
$var wire 32 A$ rf_13 $end
$var wire 32 B$ rf_12 $end
$var wire 32 C$ rf_11 $end
$var wire 32 D$ rf_10 $end
$var wire 32 E$ rf_9 $end
$var wire 32 F$ rf_8 $end
$var wire 32 G$ rf_7 $end
$var wire 32 H$ rf_6 $end
$var wire 32 I$ rf_5 $end
$var wire 32 J$ rf_4 $end
$var wire 32 K$ rf_3 $end
$var wire 32 L$ rf_2 $end
$var wire 32 M$ rf_1 $end
$var wire 32 N$ rf_0 $end
$upscope $end
$scope module ReservationStation $end
$var wire 1 B io_issue_io_busy $end
$var wire 1 ^ io_issue_io_sel $end
$var wire 1 _ io_CDB_io_rtw $end
$var wire 1 a reset $end
$var wire 1 c io_CDB_io_ack $end
$var wire 2 "" reg_st $end
$var wire 3 R" io_CDB_io_tag_in $end
$var wire 3 T" io_issue_io_tag_rs $end
$var wire 3 V" io_issue_io_tag_rt $end
$var wire 3 Y" io_issue_io_rs_id $end
$var wire 3 &# io_CDB_io_tag_out $end
$var wire 4 D# reg_tag_rs $end
$var wire 4 E# reg_tag_rt $end
$var wire 4 G# io_issue_io_func $end
$var wire 4 H# reg_func $end
$var wire 32 '$ io_issue_io_val_rs $end
$var wire 32 )$ io_CDB_io_result_in $end
$var wire 32 *$ reg_val_rs $end
$var wire 32 ,$ io_issue_io_val_rt $end
$var wire 32 -$ reg_val_rt $end
$var wire 32 .$ reg_alu_res $end
$var wire 32 P$ io_CDB_io_result_out $end
$upscope $end
$scope module ReservationStation_1 $end
$var wire 1 @ io_issue_io_busy $end
$var wire 1 W io_issue_io_sel $end
$var wire 1 X io_CDB_io_rtw $end
$var wire 1 Z reset $end
$var wire 1 \ io_CDB_io_ack $end
$var wire 2 !" reg_st $end
$var wire 3 L" io_CDB_io_tag_in $end
$var wire 3 N" io_issue_io_tag_rs $end
$var wire 3 P" io_issue_io_tag_rt $end
$var wire 3 [" io_issue_io_rs_id $end
$var wire 3 *# io_CDB_io_tag_out $end
$var wire 4 ?# reg_tag_rs $end
$var wire 4 @# reg_tag_rt $end
$var wire 4 B# io_issue_io_func $end
$var wire 4 C# reg_func $end
$var wire 32 |# io_issue_io_val_rs $end
$var wire 32 ~# io_CDB_io_result_in $end
$var wire 32 !$ reg_val_rs $end
$var wire 32 #$ io_issue_io_val_rt $end
$var wire 32 $$ reg_val_rt $end
$var wire 32 %$ reg_alu_res $end
$var wire 32 T$ io_CDB_io_result_out $end
$upscope $end
$scope module ReservationStation_2 $end
$var wire 1 > io_issue_io_busy $end
$var wire 1 P io_issue_io_sel $end
$var wire 1 Q io_CDB_io_rtw $end
$var wire 1 S reset $end
$var wire 1 U io_CDB_io_ack $end
$var wire 2 ~ reg_st $end
$var wire 3 F" io_CDB_io_tag_in $end
$var wire 3 H" io_issue_io_tag_rs $end
$var wire 3 J" io_issue_io_tag_rt $end
$var wire 3 ]" io_issue_io_rs_id $end
$var wire 3 ,# io_CDB_io_tag_out $end
$var wire 4 :# reg_tag_rs $end
$var wire 4 ;# reg_tag_rt $end
$var wire 4 =# io_issue_io_func $end
$var wire 4 ># reg_func $end
$var wire 32 s# io_issue_io_val_rs $end
$var wire 32 u# io_CDB_io_result_in $end
$var wire 32 v# reg_val_rs $end
$var wire 32 x# io_issue_io_val_rt $end
$var wire 32 y# reg_val_rt $end
$var wire 32 z# reg_alu_res $end
$var wire 32 V$ io_CDB_io_result_out $end
$upscope $end
$scope module ReservationStation_3 $end
$var wire 1 D io_issue_io_busy $end
$var wire 1 G io_issue_io_sel $end
$var wire 1 H io_CDB_io_rtw $end
$var wire 1 J reset $end
$var wire 1 N io_CDB_io_ack $end
$var wire 2 } reg_st $end
$var wire 3 @" io_CDB_io_tag_in $end
$var wire 3 B" io_issue_io_tag_rs $end
$var wire 3 D" io_issue_io_tag_rt $end
$var wire 3 _" io_issue_io_rs_id $end
$var wire 3 .# io_CDB_io_tag_out $end
$var wire 4 3# reg_tag_rs $end
$var wire 4 4# reg_tag_rt $end
$var wire 4 8# io_issue_io_func $end
$var wire 4 9# reg_func $end
$var wire 32 f# io_issue_io_val_rs $end
$var wire 32 h# io_CDB_io_result_in $end
$var wire 32 i# reg_val_rs $end
$var wire 32 o# io_issue_io_val_rt $end
$var wire 32 p# reg_val_rt $end
$var wire 32 q# reg_alu_res $end
$var wire 32 X$ io_CDB_io_result_out $end
$upscope $end
$scope module lsqueue $end
$var wire 1 # io_CDB_io_rtw $end
$var wire 1 & io_CDB_io_ack $end
$var wire 1 ' reset $end
$var wire 1 ( io_q0_mem_op $end
$var wire 1 ) io_q1_mem_op $end
$var wire 1 . io_issue_io_busy $end
$var wire 1 1 io_issue_io_sel $end
$var wire 1 2 io_CDB_io_valid $end
$var wire 1 6 io_issue_io_mem_op $end
$var wire 1 7 queue_2_mem_op $end
$var wire 1 8 queue_1_mem_op $end
$var wire 1 9 queue_0_mem_op $end
$var wire 1 : rtw $end
$var wire 1 ; io_testtrue $end
$var wire 2 w queue_2_state $end
$var wire 2 x queue_1_state $end
$var wire 2 y queue_0_state $end
$var wire 2 z head $end
$var wire 2 { fifoCount $end
$var wire 2 | tail $end
$var wire 3 (" tag $end
$var wire 3 )" io_q0_tag_rs $end
$var wire 3 *" io_q0_tag_ra $end
$var wire 3 +" io_q1_tag_rs $end
$var wire 3 1" io_issue_io_tag_rs $end
$var wire 3 3" io_CDB_io_tag_in $end
$var wire 3 4" queue_2_tag_rs $end
$var wire 3 8" io_issue_io_tag_rt $end
$var wire 3 9" queue_2_tag_ra $end
$var wire 3 :" queue_1_tag_rs $end
$var wire 3 ;" queue_0_tag_rs $end
$var wire 3 <" queue_0_tag_ra $end
$var wire 3 =" queue_1_tag_ra $end
$var wire 3 >" io_q1_tag_ra $end
$var wire 3 W" io_issue_io_rs_id $end
$var wire 3 (# io_CDB_io_tag_out $end
$var wire 4 1# io_q0_state $end
$var wire 4 2# io_q1_state $end
$var wire 32 \# result $end
$var wire 32 R$ io_CDB_io_result_out $end
$upscope $end
$upscope $end
$enddefinitions $end
$dumpvars
$end
#0
b1 !
b1 "
b0 #
b0 $
b0 %
b0 &
b1 '
b0 (
b0 )
b0 *
b0 +
b0 ,
b0 -
b0 .
b0 /
b0 0
b0 1
b0 2
b0 3
b0 4
b0 5
b0 6
b0 7
b0 8
b0 9
b0 :
b0 ;
b0 <
b0 =
b0 >
b0 ?
b0 @
b0 A
b0 B
b0 C
b0 D
b0 E
b0 F
b0 G
b0 H
b0 I
b1 J
b0 K
b0 L
b0 M
b0 N
b0 O
b0 P
b0 Q
b0 R
b1 S
b0 T
b0 U
b0 V
b0 W
b0 X
b0 Y
b1 Z
b0 [
b0 \
b1 ]
b1 ^
b0 _
b0 `
b1 a
b0 b
b0 c
b1 d
b0 e
b0 f
b0 g
b0 h
b0 i
b0 j
b0 k
b1 l
b0 m
b0 n
b0 o
b0 p
b0 q
b0 r
b0 s
b0 t
b0 u
b0 v
b00 w
b00 x
b00 y
b00 z
b00 {
b00 |
b00 }
b00 ~
b00 !"
b00 ""
b00 #"
b00 $"
b00 %"
b00 &"
b00 '"
b000 ("
b000 )"
b000 *"
b000 +"
b000 ,"
b000 -"
b000 ."
b000 /"
b000 0"
b000 1"
b000 2"
b000 3"
b000 4"
b000 5"
b000 6"
b000 7"
b000 8"
b000 9"
b000 :"
b000 ;"
b000 <"
b000 ="
b000 >"
b000 ?"
b000 @"
b000 A"
b000 B"
b000 C"
b000 D"
b000 E"
b000 F"
b000 G"
b000 H"
b000 I"
b000 J"
b000 K"
b000 L"
b000 M"
b000 N"
b000 O"
b000 P"
b000 Q"
b000 R"
b000 S"
b000 T"
b000 U"
b000 V"
b101 W"
b101 X"
b001 Y"
b001 Z"
b010 ["
b010 \"
b011 ]"
b011 ^"
b100 _"
b100 `"
b001 a"
b001 b"
b000 c"
b000 d"
b000 e"
b000 f"
b000 g"
b000 h"
b000 i"
b000 j"
b000 k"
b000 l"
b000 m"
b000 n"
b000 o"
b000 p"
b000 q"
b000 r"
b000 s"
b000 t"
b000 u"
b000 v"
b000 w"
b000 x"
b000 y"
b000 z"
b000 {"
b000 |"
b000 }"
b000 ~"
b000 !#
b000 "#
b000 ##
b000 $#
b000 %#
b001 &#
b001 '#
b000 (#
b000 )#
b010 *#
b010 +#
b011 ,#
b011 -#
b100 .#
b100 /#
b000 0#
b0000 1#
b0000 2#
b0000 3#
b0000 4#
b0000 5#
b0000 6#
b0000 7#
b0000 8#
b0000 9#
b0000 :#
b0000 ;#
b0000 <#
b0000 =#
b0000 >#
b0000 ?#
b0000 @#
b0000 A#
b0000 B#
b0000 C#
b0000 D#
b0000 E#
b0000 F#
b0000 G#
b0000 H#
b0000 I#
b0000 J#
b00000 K#
b00000 L#
b00000 M#
b00000 N#
b00000 O#
b00000 P#
b00000 Q#
b00000 R#
b00000 S#
b00000 T#
b00000 U#
b00000 V#
b00000 W#
b00000 X#
b00000 Y#
b00000 Z#
b00000 [#
b00000000000000000000000000000000 \#
b00000000000000000000000000000000 ]#
b00000000000000000000000000000000 ^#
b00000000000000000000000000000000 _#
b00000000000000000000000000000000 `#
b00000000000000000000000000000000 a#
b00000000000000000000000000000000 b#
b00000000000000000000000000000000 c#
b00000000000000000000000000000000 d#
b00000000000000000000000000000000 e#
b00000000000000000000000000000000 f#
b00000000000000000000000000000000 g#
b00000000000000000000000000000000 h#
b00000000000000000000000000000000 i#
b00000000000000000000000000000000 j#
b00000000000000000000000000000000 k#
b00000000000000000000000000000000 l#
b00000000000000000000000000000000 m#
b00000000000000000000000000000000 n#
b00000000000000000000000000000000 o#
b00000000000000000000000000000000 p#
b00000000000000000000000000000000 q#
b00000000000000000000000000000000 r#
b00000000000000000000000000000000 s#
b00000000000000000000000000000000 t#
b00000000000000000000000000000000 u#
b00000000000000000000000000000000 v#
b00000000000000000000000000000000 w#
b00000000000000000000000000000000 x#
b00000000000000000000000000000000 y#
b00000000000000000000000000000000 z#
b00000000000000000000000000000000 {#
b00000000000000000000000000000000 |#
b00000000000000000000000000000000 }#
b00000000000000000000000000000000 ~#
b00000000000000000000000000000000 !$
b00000000000000000000000000000000 "$
b00000000000000000000000000000000 #$
b00000000000000000000000000000000 $$
b00000000000000000000000000000000 %$
b00000000000000000000000000000000 &$
b00000000000000000000000000000000 '$
b00000000000000000000000000000000 ($
b00000000000000000000000000000000 )$
b00000000000000000000000000000000 *$
b00000000000000000000000000000000 +$
b00000000000000000000000000000000 ,$
b00000000000000000000000000000000 -$
b00000000000000000000000000000000 .$
b00000000000000000000000000000000 /$
b00000000000000000000000000000000 0$
b00000000000000000000000000000000 1$
b00000000000000000000000000000000 2$
b00000000000000000000000000000000 3$
b00000000000000000000000000000000 4$
b00000000000000000000000000000000 5$
b00000000000000000000000000000000 6$
b00000000000000000000000000000000 7$
b00000000000000000000000000000000 8$
b00000000000000000000000000000000 9$
b00000000000000000000000000000000 :$
b00000000000000000000000000000000 ;$
b00000000000000000000000000000000 <$
b00000000000000000000000000000000 =$
b00000000000000000000000000000000 >$
b00000000000000000000000000000000 ?$
b00000000000000000000000000000000 @$
b00000000000000000000000000000000 A$
b00000000000000000000000000000000 B$
b00000000000000000000000000000000 C$
b00000000000000000000000000000000 D$
b00000000000000000000000000000000 E$
b00000000000000000000000000000000 F$
b00000000000000000000000000000000 G$
b00000000000000000000000000000000 H$
b00000000000000000000000000000000 I$
b00000000000000000000000000000000 J$
b00000000000000000000000000000000 K$
b00000000000000000000000000000000 L$
b00000000000000000000000000000000 M$
b00000000000000000000000000000000 N$
b00000000000000000000000000000000 O$
b00000000000000000000000000000000 P$
b00000000000000000000000000000000 Q$
b00000000000000000000000000000000 R$
b00000000000000000000000000000000 S$
b00000000000000000000000000000000 T$
b00000000000000000000000000000000 U$
b00000000000000000000000000000000 V$
b00000000000000000000000000000000 W$
b00000000000000000000000000000000 X$
b00000000000000000000000000000000 Y$
b00000000000000000000000000000000 Z$
b00000000000000000000000000000000 [$
#1
b0 !
#2
b1 !
b1 "
b01 }
b01 ~
b01 !"
b01 ""
b00001 [#
#3
b0 !
#4
b1 !
#5
b0 !
#6
b1 !
#7
b0 !
#8
b1 !
#9
b0 !
#10
b1 !
b0 "
b0 '
b1 ,
b1 -
b1 0
b1 1
b1 3
b1 4
b1 5
b1 6
b0 J
b1 K
b1 L
b0 S
b0 Z
b0 ]
b0 ^
b0 a
b0 d
b0 l
b1 v
b101 a"
b101 b"
b00010 K#
b00010 L#
b00010 M#
b00010 N#
b00010 S#
b00010 T#
b00110 W#
b00110 X#
b00110 Y#
b00110 Z#
b00000000000000000000000000100010 l#
b00000000000000000000000000100010 m#
b00000000000000000000000000100010 n#
b00000000000000000000000000100010 o#
b00000000000000000000000000100010 w#
b00000000000000000000000000100010 x#
b00000000000000000000000000100010 "$
b00000000000000000000000000100010 #$
b00000000000000000000000000100010 +$
b00000000000000000000000000100010 ,$
#11
b0 !
#12
b1 !
b1 (
b1 9
b01 y
b01 {
b01 |
b110 W"
b110 X"
b110 a"
b110 b"
b101 |"
b0001 1#
b00011 K#
b00011 L#
b00011 M#
b00011 N#
b00011 S#
b00011 T#
b00010 W#
b00010 X#
b00010 Y#
b00010 Z#
b00010 [#
b00000000000000000000000000101101 l#
b00000000000000000000000000101101 m#
b00000000000000000000000000101101 n#
b00000000000000000000000000101101 o#
b00000000000000000000000000101101 w#
b00000000000000000000000000101101 x#
b00000000000000000000000000101101 "$
b00000000000000000000000000101101 #$
b00000000000000000000000000101101 +$
b00000000000000000000000000101101 ,$
#13
b0 !
#14
b1 !
b1 )
b0 ,
b0 -
b0 0
b0 1
b1 8
b1 ]
b1 ^
b01 x
b10 y
b10 {
b10 |
b111 W"
b111 X"
b001 a"
b001 b"
b110 "#
b0010 1#
b0001 2#
b00000 K#
b00000 L#
b00000 M#
b00000 N#
b00000 S#
b00000 T#
b00100 W#
b00100 X#
b00100 Y#
b00100 Z#
b00100 [#
b00000000000000000000000000001010 l#
b00000000000000000000000000001010 m#
b00000000000000000000000000001010 n#
b00000000000000000000000000001010 o#
b00000000000000000000000000001010 w#
b00000000000000000000000000001010 x#
b00000000000000000000000000001010 "$
b00000000000000000000000000001010 #$
b00000000000000000000000000001010 +$
b00000000000000000000000000001010 ,$
#15
b0 !
#16
b1 !
b1 #
b1 $
b1 :
b1 B
b1 C
b1 V
b1 W
b0 ]
b0 ^
b10 x
b00 y
b01 z
b01 {
b10 ""
b101 ("
b010 a"
b010 b"
b001 ~"
b101 (#
b101 )#
b0000 1#
b0010 2#
b00101 W#
b00101 X#
b00101 Y#
b00101 Z#
b01000 [#
b00000000000000000000000000000001 \#
b00000000000000000000000000000111 l#
b00000000000000000000000000000111 m#
b00000000000000000000000000000111 n#
b00000000000000000000000000000111 o#
b00000000000000000000000000000111 w#
b00000000000000000000000000000111 x#
b00000000000000000000000000000111 "$
b00000000000000000000000000000111 #$
b00000000000000000000000000000111 +$
b00000000000000000000000000000111 ,$
b00000000000000000000000000001010 -$
b00000000000000000000000000000001 R$
b00000000000000000000000000000001 S$
#17
b0 !
#18
b1 !
b1 %
b1 &
b1 @
b1 A
b0 K
b0 L
b1 O
b1 P
b0 V
b0 W
b1 _
b1 `
b10 !"
b11 ""
b101 ."
b101 /"
b101 0"
b101 1"
b110 5"
b110 6"
b110 7"
b110 8"
b101 A"
b101 B"
b110 C"
b110 D"
b101 G"
b101 H"
b110 I"
b110 J"
b101 M"
b101 N"
b110 O"
b110 P"
b101 S"
b101 T"
b110 U"
b110 V"
b011 a"
b011 b"
b010 }"
b00110 K#
b00110 L#
b00110 M#
b00110 N#
b00010 O#
b00010 P#
b00010 Q#
b00010 R#
b00110 S#
b00110 T#
b00010 U#
b00010 V#
b10000 [#
b00000000000000000000000000000000 l#
b00000000000000000000000000000000 m#
b00000000000000000000000000000000 n#
b00000000000000000000000000000000 o#
b00000000000000000000000000000000 w#
b00000000000000000000000000000000 x#
b00000000000000000000000000000000 "$
b00000000000000000000000000000000 #$
b00000000000000000000000000000111 $$
b00000000000000000000000000000000 +$
b00000000000000000000000000000000 ,$
b00000000000000000000000000000000 -$
b00000000000000000000000000001010 .$
b00000000000000000000000000001010 P$
b00000000000000000000000000001010 Q$
#19
b0 !
#20
b1 !
b0 %
b0 &
b1 *
b1 +
b1 <
b1 =
b1 >
b1 ?
b1 F
b1 G
b0 O
b0 P
b1 X
b1 Y
b1 b
b1 c
b1 m
b00 x
b10 z
b00 {
b10 ~
b11 !"
b110 ("
b101 ,"
b101 -"
b000 ."
b000 /"
b000 0"
b000 1"
b101 2"
b101 3"
b101 ?"
b101 @"
b000 A"
b000 B"
b101 E"
b101 F"
b000 G"
b000 H"
b101 K"
b101 L"
b000 M"
b000 N"
b101 Q"
b101 R"
b000 S"
b000 T"
b100 a"
b100 b"
b011 }"
b101 %#
b110 (#
b110 )#
b0000 2#
b0101 :#
b0110 ;#
b0101 I#
b00111 K#
b00111 L#
b00111 M#
b00111 N#
b00111 S#
b00111 T#
b01001 W#
b01001 X#
b01001 Y#
b01001 Z#
b00001 [#
b00000000000000000000000000000001 ]#
b00000000000000000000000000000001 ^#
b00000000000000000000000000000001 _#
b00000000000000000000000000000001 `#
b00000000000000000000000001000000 a#
b00000000000000000000000001000000 b#
b00000000000000000000000000000001 g#
b00000000000000000000000000000001 h#
b00000000000000000000000000000001 t#
b00000000000000000000000000000001 u#
b00000000000000000000000000000001 }#
b00000000000000000000000000000001 ~#
b00000000000000000000000000000000 $$
b00000000000000000000000000000111 %$
b00000000000000000000000000000001 ($
b00000000000000000000000000000001 )$
b00000000000000000000000000000001 O$
b00000000000000000000000000000111 T$
b00000000000000000000000000000111 U$
b00000000000000000000000000000001 [$
#21
b0 !
#22
b1 !
b0 B
b0 C
b1 D
b1 E
b0 F
b0 G
b1 [
b1 \
b1 ]
b1 ^
b0 _
b0 `
b0 b
b0 c
b10 }
b01 ""
b001 ,"
b001 -"
b110 ."
b110 /"
b110 0"
b110 1"
b001 2"
b001 3"
b000 5"
b000 6"
b000 7"
b000 8"
b001 ?"
b001 @"
b110 A"
b110 B"
b000 C"
b000 D"
b001 E"
b001 F"
b110 G"
b110 H"
b000 I"
b000 J"
b001 K"
b001 L"
b110 M"
b110 N"
b000 O"
b000 P"
b001 Q"
b001 R"
b110 S"
b110 T"
b000 U"
b000 V"
b001 a"
b001 b"
b100 y"
b000 |"
b001 %#
b0110 4#
b0001 5#
b0001 6#
b0001 7#
b0001 8#
b0000 :#
b0001 <#
b0001 =#
b0001 A#
b0001 B#
b0001 F#
b0001 G#
b0001 I#
b00010 K#
b00010 L#
b00010 M#
b00010 N#
b00100 O#
b00100 P#
b00100 Q#
b00100 R#
b00010 S#
b00010 T#
b00100 U#
b00100 V#
b00111 W#
b00111 X#
b00111 Y#
b00111 Z#
b00010 [#
b00000000000000000000000000001010 ]#
b00000000000000000000000000001010 ^#
b00000000000000000000000000001010 _#
b00000000000000000000000000001010 `#
b00000000000000000000000000010000 a#
b00000000000000000000000000010000 b#
b00000000000000000000000000001010 g#
b00000000000000000000000000001010 h#
b00000000000000000000000000001010 j#
b00000000000000000000000000001010 k#
b00000000000000000000000000001010 n#
b00000000000000000000000000001010 o#
b00000000000000000000000000001010 t#
b00000000000000000000000000001010 u#
b00000000000000000000000000000001 v#
b00000000000000000000000000001010 w#
b00000000000000000000000000001010 x#
b00000000000000000000000000001010 }#
b00000000000000000000000000001010 ~#
b00000000000000000000000000001010 "$
b00000000000000000000000000001010 #$
b00000000000000000000000000001010 ($
b00000000000000000000000000001010 )$
b00000000000000000000000000001010 +$
b00000000000000000000000000001010 ,$
b00000000000000000000000000000001 H$
b00000000000000000000000000001010 O$
b00000000000000000000000000001010 [$
#23
b0 !
#24
b1 !
b0 @
b0 A
b1 B
b1 C
b1 V
b1 W
b0 X
b0 Y
b0 [
b0 \
b0 ]
b0 ^
b01 !"
b10 ""
b010 ,"
b010 -"
b010 2"
b010 3"
b010 ?"
b010 @"
b010 E"
b010 F"
b010 K"
b010 L"
b010 Q"
b010 R"
b010 a"
b010 b"
b001 {"
b000 ~"
b010 %#
b0000 5#
b0000 6#
b0000 7#
b0000 8#
b0000 <#
b0000 =#
b0000 A#
b0000 B#
b0110 D#
b0000 F#
b0000 G#
b0001 H#
b0010 I#
b00110 W#
b00110 X#
b00110 Y#
b00110 Z#
b00100 [#
b00000000000000000000000000000111 ]#
b00000000000000000000000000000111 ^#
b00000000000000000000000000000111 _#
b00000000000000000000000000000111 `#
b00000000000000000000000000000000 a#
b00000000000000000000000000000000 b#
b00000000000000000000000000000111 g#
b00000000000000000000000000000111 h#
b00000000000000000000000000000111 t#
b00000000000000000000000000000111 u#
b00000000000000000000000000000111 }#
b00000000000000000000000000000111 ~#
b00000000000000000000000000000111 ($
b00000000000000000000000000000111 )$
b00000000000000000000000000001010 -$
b00000000000000000000000000001010 J$
b00000000000000000000000000000111 O$
b00000000000000000000000000000111 [$
#25
b0 !
